9 Data transformation with dplyr | Using R at Grattan Institute
…
The select function takes a dataset and keeps or drops variables (columns) that are specified.

For example, look at the variables that are in the sa3_income dataset (using the names() function):

names(sa3_income)

## [1] "year"     "sa3_name" "state"    "gender"   "income"   "workers"

If you wanted to keep just the state and income variables, you could take the sa3_income dataset and select just those variables:

sa3_income %>% 
  select(state, income)

## # A tibble: 4,019 × 2
##    state income
##    <chr>  <dbl>
##  1 ACT   54105.
##  2 ACT   56724.
##  3 ACT   58918.
##  4 ACT   60525.
##  5 ACT   60964.
##  6 ACT   63389.
##  7 ACT   53139.
##  8 ACT   54515.
##  9 ACT   58132.
## 10 ACT   56247.
## # … with 4,009 more rows

Or you could use - (minus) to remove the state and sa3_name variables:32

sa3_income %>% 
  select(-state, -sa3_name)

## # A tibble: 4,019 × 4
##     year gender income workers
##    <dbl> <chr>   <dbl>   <dbl>
##  1  2011 Men    54105.   67774
##  2  2012 Men    56724.   69435
##  3  2013 Men    58918.   69697
##  4  2014 Men    60525.   68613
##  5  2015 Men    60964.   63428
##  6  2016 Men    63389.   69828
##  7  2011 Men    53139.     666
##  8  2012 Men    54515.     647
##  9  2013 Men    58132.     641
## 10  2014 Men    56247.     561
## # … with 4,009 more rows

9.3.1 Selecting groups of variables

Sometimes it can be useful to keep or drop variables with names that have a certain characteristic; they begin with some text string, or end with one, or contain one, or have some other pattern altogether.

You can use patterns and ‘select helpers’33
from the Tidyverse to help deal with these sets of variables.

For example, if you want to keep just the SA3 and state variables – ie the variables that start with "s" – you could:

sa3_income %>% 
  select(starts_with("s"))

## # A tibble: 4,019 × 2
##    sa3_name      state
##    <chr>         <chr>
##  1 Belconnen     ACT  
##  2 Belconnen     ACT  
##  3 Belconnen     ACT  
##  4 Belconnen     ACT  
##  5 Belconnen     ACT  
##  6 Belconnen     ACT  
##  7 Canberra East ACT  
##  8 Canberra East ACT  
##  9 Canberra East ACT  
## 10 Canberra East ACT  
## # … with 4,009 more rows

Or, instead, if you wanted to keep just the variables that contain "er", you could:

sa3_income %>% 
  select(contains("er"))

## # A tibble: 4,019 × 2
##    gender workers
##    <chr>    <dbl>
##  1 Men      67774
##  2 Men      69435
##  3 Men      69697
##  4 Men      68613
##  5 Men      63428
##  6 Men      69828
##  7 Men        666
##  8 Men        647
##  9 Men        641
## 10 Men        561
## # … with 4,009 more rows

And if you wanted to keep both the "s" variables and the "er" variables, you could:

sa3_income %>% 
  select(starts_with("s"), contains("er"), )

## # A tibble: 4,019 × 4
##    sa3_name      state gender workers
##    <chr>         <chr> <chr>    <dbl>
##  1 Belconnen     ACT   Men      67774
##  2 Belconnen     ACT   Men      69435
##  3 Belconnen     ACT   Men      69697
##  4 Belconnen     ACT   Men      68613
##  5 Belconnen     ACT   Men      63428
##  6 Belconnen     ACT   Men      69828
##  7 Canberra East ACT   Men        666
##  8 Canberra East ACT   Men        647
##  9 Canberra East ACT   Men        641
## 10 Canberra East ACT   Men        561
## # … with 4,009 more rows
…
"apple" == c("orange", "apple", 7)

## [1] FALSE  TRUE FALSE

A lot of what we do in ‘data science’ is based on these TRUE and FALSE conditions.

9.4.2 Filtering data with filter

Turning back to the sa3_income data, if you just wanted to see observations people in NT:

sa3_income %>% 
  filter(state == "NT")

## # A tibble: 123 × 6
##     year sa3_name      state gender income workers
##    <dbl> <chr>         <chr> <chr>   <dbl>   <dbl>
##  1  2011 Alice Springs NT    Men    52602.   23663
##  2  2012 Alice Springs NT    Men    55050.   24065
##  3  2013 Alice Springs NT    Men    57251.   24218
##  4  2014 Alice Springs NT    Men    58403.   24566
##  5  2015 Alice Springs NT    Men    60084.   24562
##  6  2016 Alice Springs NT    Men    64330.   22048
##  7  2011 Barkly        NT    Men    50517.    2272
##  8  2012 Barkly        NT    Men    52474.    2321
##  9  2013 Barkly        NT    Men    55006.    2364
## 10  2014 Barkly        NT    Men    56543.    2234
## # … with 113 more rows
…
From the description of the tibble above, you can learn that your data has 8 unique groups of state:

## # Groups:       state [8]

Or you could keep the observations with the lowest average incomes in each state and year:37

sa3_income %>% 
  group_by(state, year) %>% 
  filter(income == min(income))

## # A tibble: 48 × 6
## # Groups:   state, year [48]
##     year sa3_name                state gender income workers
##    <dbl> <chr>                   <chr> <chr>   <dbl>   <dbl>
##  1  2014 Cocos (Keeling) Islands NT    Men    32652.      45
##  2  2011 Belconnen               ACT   Women  43235    22708
##  3  2014 Belconnen               ACT   Women  48399.   22750
##  4  2015 Belconnen               ACT   Women  48814.   20577
##  5  2016 Belconnen               ACT   Women  50756.   22982
##  6  2012 Gungahlin               ACT   Women  45241    13647
##  7  2013 North Canberra          ACT   Women  45844.   11965
##  8  2012 Great Lakes             NSW   Women  32590     4730
##  9  2015 Lord Howe Island        NSW   Women  34173.      75
## 10  2011 Lower Murray            NSW   Women  30800.    2122
## # … with 38 more rows

The dataset remains grouped after your function(s). To explicitly ‘ungroup’ your data, add the ungroup function to your chain (the ‘Groups’ note has disappeared in the below):

sa3_income %>% 
  group_by(state, year) %>% 
  filter(income == min(income)) %>% 
  ungroup()

## # A tibble: 48 × 6
##     year sa3_name                state gender income workers
##    <dbl> <chr>                   <chr> <chr>   <dbl>   <dbl>
##  1  2014 Cocos (Keeling) Islands NT    Men    32652.      45
##  2  2011 Belconnen               ACT   Women  43235    22708
##  3  2014 Belconnen               ACT   Women  48399.   22750
##  4  2015 Belconnen               ACT   Women  48814.   20577
##  5  2016 Belconnen               ACT   Women  50756.   22982
##  6  2012 Gungahlin               ACT   Women  45241    13647
##  7  2013 North Canberra          ACT   Women  45844.   11965
##  8  2012 Great Lakes             NSW   Women  32590     4730
##  9  2015 Lord Howe Island        NSW   Women  34173.      75
## 10  2011 Lower Murray            NSW   Women  30800.    2122
## # … with 38 more rows

9.5 Edit and add new variables with mutate()

To add new variables to your dataset, use the mutate function. Like all dplyr verbs, the first argument to mutate is your data. Then define variables using a new_variable_name = x format, where x can be a single number or character string, or simple operation or function using current variables.

To add a new variable to the sa3_income dataset that shows the log the number of workers:

sa3_income %>% 
  mutate(log_workers = log(workers))

## # A tibble: 4,019 × 7
##     year sa3_name      state gender income workers log_workers
##    <dbl> <chr>         <chr> <chr>   <dbl>   <dbl>       <dbl>
##  1  2011 Belconnen     ACT   Men    54105.   67774       11.1 
##  2  2012 Belconnen     ACT   Men    56724.   69435       11.1 
##  3  2013 Belconnen     ACT   Men    58918.   69697       11.2 
##  4  2014 Belconnen     ACT   Men    60525.   68613       11.1 
##  5  2015 Belconnen     ACT   Men    60964.   63428       11.1 
##  6  2016 Belconnen     ACT   Men    63389.   69828       11.2 
##  7  2011 Canberra East ACT   Men    53139.     666        6.50
##  8  2012 Canberra East ACT   Men    54515.     647        6.47
##  9  2013 Canberra East ACT   Men    58132.     641        6.46
## 10  2014 Canberra East ACT   Men    56247.     561        6.33
## # … with 4,009 more rows

To edit a variable, redefine it in mutate. For example, if you wanted to take the last two digits of year:

sa3_income %>% 
  mutate(year = as.integer(year - 2000))

## # A tibble: 4,019 × 6
##     year sa3_name      state gender income workers
##    <int> <chr>         <chr> <chr>   <dbl>   <dbl>
##  1    11 Belconnen     ACT   Men    54105.   67774
##  2    12 Belconnen     ACT   Men    56724.   69435
##  3    13 Belconnen     ACT   Men    58918.   69697
##  4    14 Belconnen     ACT   Men    60525.   68613
##  5    15 Belconnen     ACT   Men    60964.   63428
##  6    16 Belconnen     ACT   Men    63389.   69828
##  7    11 Canberra East ACT   Men    53139.     666
##  8    12 Canberra East ACT   Men    54515.     647
##  9    13 Canberra East ACT   Men    58132.     641
## 10    14 Canberra East ACT   Men    56247.     561
## # … with 4,009 more rows

9.5.1 Using if_else() or case_when()

Sometimes you want to create a new variable based on some sort of condition. Like, if the number of workers in an sa3 is more than 2,000, set the new many_workers variable to TRUE, and set it to FALSE otherwise.

This kind of operation can be thought of as if_else: if (some condition), do this, otherwise do that.

That’s what the if_else() function does. It takes three arguments: a condition, a value if that condition is true, and a value if that condition is false.

You can use the if_else() function when you are creating new variables in a mutate command:

sa3_income %>% 
  mutate(many_workers = if_else(workers > 2000, "Many workers", "Not many workers"))

## # A tibble: 4,019 × 7
##     year sa3_name      state gender income workers many_workers    
##    <dbl> <chr>         <chr> <chr>   <dbl>   <dbl> <chr>           
##  1  2011 Belconnen     ACT   Men    54105.   67774 Many workers    
##  2  2012 Belconnen     ACT   Men    56724.   69435 Many workers    
##  3  2013 Belconnen     ACT   Men    58918.   69697 Many workers    
##  4  2014 Belconnen     ACT   Men    60525.   68613 Many workers    
##  5  2015 Belconnen     ACT   Men    60964.   63428 Many workers    
##  6  2016 Belconnen     ACT   Men    63389.   69828 Many workers    
##  7  2011 Canberra East ACT   Men    53139.     666 Not many workers
##  8  2012 Canberra East ACT   Men    54515.     647 Not many workers
##  9  2013 Canberra East ACT   Men    58132.     641 Not many workers
## 10  2014 Canberra East ACT   Men    56247.     561 Not many workers
## # … with 4,009 more rows
Which reads:

Take the sa3_income dataset, and then add a variable that says ‘Many workers’ if there are more than 2,000 workers, and ‘Not many workers’ if there are fewer-or-equal than 2,000 workers.

With the if_else function, you take one conditional statement and return something based on that. But often you don’t want to be so binary; you want to do this if this is true, that if that is true, and the other if the other is true, etc.

This could be done by nesting if_else statements:

sa3_income %>% 
  mutate(worker_group = if_else(workers > 2000, "More than 2000 workers", 
                                if_else(workers > 1000, "1000-2000 workers",
                                        if_else(workers > 500, "500-1000 workers",
                                                "500 workers or less"))))

## # A tibble: 4,019 × 7
##     year sa3_name      state gender income workers worker_group          
##    <dbl> <chr>         <chr> <chr>   <dbl>   <dbl> <chr>                 
##  1  2011 Belconnen     ACT   Men    54105.   67774 More than 2000 workers
##  2  2012 Belconnen     ACT   Men    56724.   69435 More than 2000 workers
##  3  2013 Belconnen     ACT   Men    58918.   69697 More than 2000 workers
##  4  2014 Belconnen     ACT   Men    60525.   68613 More than 2000 workers
##  5  2015 Belconnen     ACT   Men    60964.   63428 More than 2000 workers
##  6  2016 Belconnen     ACT   Men    63389.   69828 More than 2000 workers
##  7  2011 Canberra East ACT   Men    53139.     666 500-1000 workers      
##  8  2012 Canberra East ACT   Men    54515.     647 500-1000 workers      
##  9  2013 Canberra East ACT   Men    58132.     641 500-1000 workers      
## 10  2014 Canberra East ACT   Men    56247.     561 500-1000 workers      
## # … with 4,009 more rows

But that syntax can be a bit difficult to read. You can do this in a clearer way using case_when:

sa3_income %>% 
  mutate(worker_group = case_when(
    workers > 20000 ~ "More than 20,000 workers",
    workers > 10000 ~ "More than 10,000 workers",
    workers >  5000 ~ "More than 5,000 workers",
    workers <= 5000 ~ "5,000 or fewer workers"
  ))

## # A tibble: 4,019 × 7
##     year sa3_name      state gender income workers worker_group            
##    <dbl> <chr>         <chr> <chr>   <dbl>   <dbl> <chr>                   
##  1  2011 Belconnen     ACT   Men    54105.   67774 More than 20,000 workers
##  2  2012 Belconnen     ACT   Men    56724.   69435 More than 20,000 workers
##  3  2013 Belconnen     ACT   Men    58918.   69697 More than 20,000 workers
##  4  2014 Belconnen     ACT   Men    60525.   68613 More than 20,000 workers
##  5  2015 Belconnen     ACT   Men    60964.   63428 More than 20,000 workers
##  6  2016 Belconnen     ACT   Men    63389.   69828 More than 20,000 workers
##  7  2011 Canberra East ACT   Men    53139.     666 5,000 or fewer workers  
##  8  2012 Canberra East ACT   Men    54515.     647 5,000 or fewer workers  
##  9  2013 Canberra East ACT   Men    58132.     641 5,000 or fewer workers  
## 10  2014 Canberra East ACT   Men    56247.     561 5,000 or fewer workers  
## # … with 4,009 more rows

The case_when function takes the first condition (LHS) and applies some value (RHS) if it is true. It then moves to the next condition, and so on. Once an observation has been classified – eg an observation has more than 20,000 workers – it is ignored in proceeding conditions.

Ending a case_when statement with TRUE ~ [some value] is a catch all, and will apply the RHS [some value] to any observations that did not meet an explicit condition. For example, you could end the worker classification with:

sa3_income %>% 
  mutate(worker_group = case_when(
    workers > 20000 ~ "More than 20,000 workers",
    workers > 10000 ~ "More than 10,000 workers",
    workers >  5000 ~ "More than 5,000 workers",
    TRUE ~ "5,000 or fewer workers"
  ))

## # A tibble: 4,019 × 7
##     year sa3_name      state gender income workers worker_group            
##    <dbl> <chr>         <chr> <chr>   <dbl>   <dbl> <chr>                   
##  1  2011 Belconnen     ACT   Men    54105.   67774 More than 20,000 workers
##  2  2012 Belconnen     ACT   Men    56724.   69435 More than 20,000 workers
##  3  2013 Belconnen     ACT   Men    58918.   69697 More than 20,000 workers
##  4  2014 Belconnen     ACT   Men    60525.   68613 More than 20,000 workers
##  5  2015 Belconnen     ACT   Men    60964.   63428 More than 20,000 workers
##  6  2016 Belconnen     ACT   Men    63389.   69828 More than 20,000 workers
##  7  2011 Canberra East ACT   Men    53139.     666 5,000 or fewer workers  
##  8  2012 Canberra East ACT   Men    54515.     647 5,000 or fewer workers  
##  9  2013 Canberra East ACT   Men    58132.     641 5,000 or fewer workers  
## 10  2014 Canberra East ACT   Men    56247.     561 5,000 or fewer workers  
## # … with 4,009 more rows

Meaning, for any observation that did not have workers more than 20,000 or more than 10,000 or more than 5,000, assign the value "5,000 or fewer workers".

Observations that do not meet a condition will be set to NA:

sa3_income %>% 
  mutate(worker_group = case_when(
    workers > 10e6 ~ "More than 10 million workers"
  ))

## # A tibble: 4,019 × 7
##     year sa3_name      state gender income workers worker_group
##    <dbl> <chr>         <chr> <chr>   <dbl>   <dbl> <chr>       
##  1  2011 Belconnen     ACT   Men    54105.   67774 <NA>        
##  2  2012 Belconnen     ACT   Men    56724.   69435 <NA>        
##  3  2013 Belconnen     ACT   Men    58918.   69697 <NA>        
##  4  2014 Belconnen     ACT   Men    60525.   68613 <NA>        
##  5  2015 Belconnen     ACT   Men    60964.   63428 <NA>        
##  6  2016 Belconnen     ACT   Men    63389.   69828 <NA>        
##  7  2011 Canberra East ACT   Men    53139.     666 <NA>        
##  8  2012 Canberra East ACT   Men    54515.     647 <NA>        
##  9  2013 Canberra East ACT   Men    58132.     641 <NA>        
## 10  2014 Canberra East ACT   Men    56247.     561 <NA>        
## # … with 4,009 more rows

Like any if or if_else, you can provide more than one condition to your conditional statement:

sa3_income %>% 
  mutate(women_group = case_when(
    gender == "Women" & workers > 20000 ~ "More than 20,000 women",
    gender == "Women" & workers > 10000 ~ "More than 10,000 women",
    gender == "Women" & workers >  5000 ~ "More than 5,000 women",
    gender == "Women"                  ~ "5,000 or fewer women",
    TRUE ~ "Men"
  ))

## # A tibble: 4,019 × 7
##     year sa3_name      state gender income workers women_group
##    <dbl> <chr>         <chr> <chr>   <dbl>   <dbl> <chr>      
##  1  2011 Belconnen     ACT   Men    54105.   67774 Men        
##  2  2012 Belconnen     ACT   Men    56724.   69435 Men        
##  3  2013 Belconnen     ACT   Men    58918.   69697 Men        
##  4  2014 Belconnen     ACT   Men    60525.   68613 Men        
##  5  2015 Belconnen     ACT   Men    60964.   63428 Men        
##  6  2016 Belconnen     ACT   Men    63389.   69828 Men        
##  7  2011 Canberra East ACT   Men    53139.     666 Men        
##  8  2012 Canberra East ACT   Men    54515.     647 Men        
##  9  2013 Canberra East ACT   Men    58132.     641 Men        
## 10  2014 Canberra East ACT   Men    56247.     561 Men        
## # … with 4,009 more rows

9.5.2 Grouped mutates with group_by()

Like filtering, you can add or edit variables on grouped data. For example, you could get the average number of workers in each SA3 over the 6 years:

sa3_income %>% 
  group_by(sa3_name, gender) %>% 
  mutate(av_workers = mean(workers))

## # A tibble: 4,019 × 7
## # Groups:   sa3_name, gender [672]
##     year sa3_name      state gender income workers av_workers
##    <dbl> <chr>         <chr> <chr>   <dbl>   <dbl>      <dbl>
##  1  2011 Belconnen     ACT   Men    54105.   67774     68129.
##  2  2012 Belconnen     ACT   Men    56724.   69435     68129.
##  3  2013 Belconnen     ACT   Men    58918.   69697     68129.
##  4  2014 Belconnen     ACT   Men    60525.   68613     68129.
##  5  2015 Belconnen     ACT   Men    60964.   63428     68129.
##  6  2016 Belconnen     ACT   Men    63389.   69828     68129.
##  7  2011 Canberra East ACT   Men    53139.     666       641.
##  8  2012 Canberra East ACT   Men    54515.     647       641.
##  9  2013 Canberra East ACT   Men    58132.     641       641.
## 10  2014 Canberra East ACT   Men    56247.     561       641.
## # … with 4,009 more rows
…
