…
```
## `summarise()` has grouped output by 'state', 'gender'. You can override using the `.groups` argument.
```

```r
data
```

```
## # A tibble: 32 × 4
## # Groups:   state, gender [16]
##    state gender prof             average_income
##    <chr> <chr>  <chr>                     <dbl>
##  1 ACT   Men    Non-professional         52545.
##  2 ACT   Men    Professional             96488.
##  3 ACT   Women  Non-professional         46151.
##  4 ACT   Women  Professional             79828.
##  5 NSW   Men    Non-professional         49182.
##  6 NSW   Men    Professional             91624.
##  7 NSW   Women  Non-professional         36772.
##  8 NSW   Women  Professional             68445.
##  9 NT    Men    Non-professional         58844.
## 10 NT    Men    Professional             87666.
## # … with 22 more rows
```
…
