5 Chart cookbook | Using R at Grattan Institute
…
5.2.3 Facetted bar charts

‘Facetting’ a chart means you create a separate plot for each group. It’s particularly useful in showing differences between groups. The chart you’ll make in this section will show annual income by gender and state, and by professional and non-professional workers:

Start by creating the dataset you want to plot:

data <- sa3_income %>% 
  group_by(state, gender, prof) %>% 
  summarise(average_income = sum(total_income) / sum(workers))

data

## # A tibble: 32 x 4
## # Groups:   state, gender [16]
##    state gender prof             average_income
##    <chr> <chr>  <chr>                     <dbl>
##  1 ACT   Men    Non-professional         52545.
##  2 ACT   Men    Professional             96488.
##  3 ACT   Women  Non-professional         46151.
##  4 ACT   Women  Professional             79828.
##  5 NSW   Men    Non-professional         49182.
##  6 NSW   Men    Professional             91624.
##  7 NSW   Women  Non-professional         36772.
##  8 NSW   Women  Professional             68445.
##  9 NT    Men    Non-professional         58844.
## 10 NT    Men    Professional             87666.
## # … with 22 more rows
…
5.3 Line charts

A line chart has one key aesthetic: group. This tells ggplot how to connect individual lines.

First, we’ll take the sa3_income dataset and create a summary table of total workers and income by year, state, professional work and gender. We’ll use this sa3_income throughout this section, and we’ll ignore ACT and NT.

data <- sa3_income %>% 
  filter(!state %in% c("ACT", "NT")) %>% 
  group_by(year, state) %>% 
  summarise(workers = sum(workers),
            average_income = sum(total_income) / workers)

data

## # A tibble: 36 x 4
## # Groups:   year [6]
##     year state workers average_income
##    <dbl> <chr>   <dbl>          <dbl>
##  1  2010 NSW   5854166         55483.
##  2  2010 Qld   3777991         51408.
##  3  2010 SA    1323120         48443.
##  4  2010 Tas    412691         45439.
##  5  2010 Vic   4613674         52053.
##  6  2010 WA    2016695         58795.
##  7  2011 NSW   5956919         58011.
##  8  2011 Qld   3891702         55200.
##  9  2011 SA    1339193         51166.
## 10  2011 Tas    410521         47688.
## # … with 26 more rows
…
