8 Data transformation | Using R at Grattan Institute
…
##  [1] "sa3"                   "sa3_name"             
##  [3] "sa3_sqkm"              "sa3_income_percentile"
##  [5] "sa4_name"              "gcc_name"             
##  [7] "state"                 "occupation"           
##  [9] "occ_short"             "prof"                 
## [11] "gender"                "year"                 
## [13] "median_income"         "average_income"       
## [15] "total_income"          "workers"

If you wanted to keep just the state and total_income variables, you could take the sa3_income dataset and select just those variables:

sa3_income %>% 
  select(state, total_income)

## # A tibble: 47,832 x 2
##    state total_income
##    <chr>        <dbl>
##  1 NSW      235853682
##  2 NSW      253323356
##  3 NSW      266908460
##  4 NSW      264054166
##  5 NSW      238214882
##  6 NSW      273956768
##  7 NSW       97561871
##  8 NSW      102280707
##  9 NSW      104914140
## 10 NSW      104370174
## # … with 47,822 more rows

Or you could use - (minus) to remove the sa3 and sa3_name variables:4

sa3_income %>% 
  select(-sa3, -sa3_name)

## # A tibble: 47,832 x 14
##    sa3_sqkm sa3_income_perc… sa4_name gcc_name state occupation occ_short
##       <dbl>            <dbl> <chr>    <chr>    <chr> <chr>      <chr>    
##  1    6511.               80 Capital… Rest of… NSW   Clerical … Admin    
##  2    6511.               76 Capital… Rest of… NSW   Clerical … Admin    
##  3    6511.               78 Capital… Rest of… NSW   Clerical … Admin    
##  4    6511.               76 Capital… Rest of… NSW   Clerical … Admin    
##  5    6511.               74 Capital… Rest of… NSW   Clerical … Admin    
##  6    6511.               79 Capital… Rest of… NSW   Clerical … Admin    
##  7    6511.               80 Capital… Rest of… NSW   Clerical … Admin    
##  8    6511.               76 Capital… Rest of… NSW   Clerical … Admin    
##  9    6511.               78 Capital… Rest of… NSW   Clerical … Admin    
## 10    6511.               76 Capital… Rest of… NSW   Clerical … Admin    
## # … with 47,822 more rows, and 7 more variables: prof <chr>, gender <chr>,
## #   year <dbl>, median_income <dbl>, average_income <dbl>,
## #   total_income <dbl>, workers <dbl>

8.4.1 Selecting groups of variables

Sometimes it can be useful to keep or drop variables with names that have a certain characteristic; they begin with some text string, or end with one, or contain one, or have some other pattern altogether.

You can use patterns and ‘select helpers’5
from the Tidyverse to help deal with these sets of variables.

For example, if you want to keep just the SA3 and SA4 variables – ie the variables that start with "sa" – you could:

sa3_income %>% 
  select(starts_with("sa"))

## # A tibble: 47,832 x 5
##      sa3 sa3_name   sa3_sqkm sa3_income_percentile sa4_name      
##    <dbl> <chr>         <dbl>                 <dbl> <chr>         
##  1 10102 Queanbeyan    6511.                    80 Capital Region
##  2 10102 Queanbeyan    6511.                    76 Capital Region
##  3 10102 Queanbeyan    6511.                    78 Capital Region
##  4 10102 Queanbeyan    6511.                    76 Capital Region
##  5 10102 Queanbeyan    6511.                    74 Capital Region
##  6 10102 Queanbeyan    6511.                    79 Capital Region
##  7 10102 Queanbeyan    6511.                    80 Capital Region
##  8 10102 Queanbeyan    6511.                    76 Capital Region
##  9 10102 Queanbeyan    6511.                    78 Capital Region
## 10 10102 Queanbeyan    6511.                    76 Capital Region
## # … with 47,822 more rows

Or, instead, if you wanted to keep just the variables that contain "income", you could:

sa3_income %>% 
  select(contains("income"))

## # A tibble: 47,832 x 4
##    sa3_income_percentile median_income average_income total_income
##                    <dbl>         <dbl>          <dbl>        <dbl>
##  1                    80         52127          51306    235853682
##  2                    76         54894          53807    253323356
##  3                    78         57868          56405    266908460
##  4                    76         59025          57742    264054166
##  5                    74         59041          58286    238214882
##  6                    79         62741          61591    273956768
##  7                    80         66900          66869     97561871
##  8                    76         68943          69721    102280707
##  9                    78         71998          71859    104914140
## 10                    76         74277          74871    104370174
## # … with 47,822 more rows

And if you wanted to keep both the "sa" variables and the "income" variables, you could:

sa3_income %>% 
  select(starts_with("sa"), contains("income"), )

## # A tibble: 47,832 x 8
##      sa3 sa3_name sa3_sqkm sa3_income_perc… sa4_name median_income
##    <dbl> <chr>       <dbl>            <dbl> <chr>            <dbl>
##  1 10102 Queanbe…    6511.               80 Capital…         52127
##  2 10102 Queanbe…    6511.               76 Capital…         54894
##  3 10102 Queanbe…    6511.               78 Capital…         57868
##  4 10102 Queanbe…    6511.               76 Capital…         59025
##  5 10102 Queanbe…    6511.               74 Capital…         59041
##  6 10102 Queanbe…    6511.               79 Capital…         62741
##  7 10102 Queanbe…    6511.               80 Capital…         66900
##  8 10102 Queanbe…    6511.               76 Capital…         68943
##  9 10102 Queanbe…    6511.               78 Capital…         71998
## 10 10102 Queanbe…    6511.               76 Capital…         74277
## # … with 47,822 more rows, and 2 more variables: average_income <dbl>,
## #   total_income <dbl>
…
